Assignment 2/Design1_DirectCout/RESULT.vcd
$date
     Jun 06, 2017       02:11:49
$end

$version
 SystemC 2.3.1-Accellera --- Mar 13 2017 14:07:17
$end

$timescale
     1 ps
$end

$scope module SystemC $end
$var wire    1  aaaaa  A       $end
$var wire    1  aaaab  B       $end
$var wire    1  aaaac  Sum       $end
$var wire    1  aaaad  Carry       $end
$var wire    1  aaaae  A       $end
$var wire    1  aaaaf  B       $end
$var wire    1  aaaag  Cin       $end
$var wire    1  aaaah  S       $end
$var wire    1  aaaai  Cout       $end
$upscope $end
$enddefinitions  $end

$comment
All initial values are dumped below at time 0 sec = 0 timescale units.
$end

$dumpvars
0aaaaa
0aaaab
0aaaac
0aaaad
0aaaae
0aaaaf
0aaaag
0aaaah
0aaaai
$end

#10000
1aaaag
1aaaah

#20000
1aaaaf
0aaaag

#30000
1aaaag
0aaaah
1aaaai

#40000
1aaaae
0aaaaf
0aaaag
1aaaah
0aaaai

#50000
1aaaag
0aaaah
1aaaai

#60000
1aaaaf
0aaaag

#70000
1aaaag
1aaaah

#80000
0aaaae
0aaaaf
0aaaag
0aaaah
0aaaai

#100000
1aaaag
1aaaah

#110000
1aaaaf
0aaaag

#120000
1aaaag
0aaaah
1aaaai

#130000
1aaaae
0aaaaf
0aaaag
1aaaah
0aaaai

#140000
1aaaag
0aaaah
1aaaai

#150000
1aaaaf
0aaaag

#160000
1aaaag
1aaaah

#170000
0aaaae
0aaaaf
0aaaag
0aaaah
0aaaai

#190000
1aaaag
1aaaah

#200000
1aaaaf
0aaaag

#210000
1aaaag
0aaaah
1aaaai

#220000
1aaaae
0aaaaf
0aaaag
1aaaah
0aaaai

#230000
1aaaag
0aaaah
1aaaai

#240000
1aaaaf
0aaaag

#250000
1aaaag
1aaaah

#260000
0aaaae
0aaaaf
0aaaag
0aaaah
0aaaai

#280000
1aaaag
1aaaah

#290000
1aaaaf
0aaaag

#300000
1aaaag
0aaaah
1aaaai

#310000
1aaaae
0aaaaf
0aaaag
1aaaah
0aaaai

#320000
1aaaag
0aaaah
1aaaai

#330000
1aaaaf
0aaaag

#340000
1aaaag
1aaaah

#350000
0aaaae
0aaaaf
0aaaag
0aaaah
0aaaai

#370000
1aaaab
1aaaac

#380000
1aaaaa
0aaaab

#390000
1aaaab
0aaaac
1aaaad

#400000
0aaaaa
0aaaab
0aaaad

#420000
1aaaab
1aaaac

#430000
1aaaaa
0aaaab

#440000
1aaaab
0aaaac
1aaaad

#450000
0aaaaa
0aaaab
0aaaad

#470000
1aaaab
1aaaac

#480000
1aaaaa
0aaaab

#490000
1aaaab
0aaaac
1aaaad

#500000
0aaaaa
0aaaab
0aaaad

#520000
1aaaab
1aaaac

#530000
1aaaaa
0aaaab

#540000
1aaaab
0aaaac
1aaaad

#550000
0aaaaa
0aaaab
0aaaad

