Assignment 2/Design2/RESULT.vcd
$date
     Jun 06, 2017       05:20:59
$end

$version
 SystemC 2.3.1-Accellera --- Mar 13 2017 14:07:17
$end

$timescale
     1 ps
$end

$scope module SystemC $end
$var wire    1  aaaaa  clk       $end
$var wire    1  aaaab  rst       $end
$var wire   32  aaaac  x [31:0]  $end
$var wire   32  aaaad  y [31:0]  $end
$upscope $end
$enddefinitions  $end

$comment
All initial values are dumped below at time 0 sec = 0 timescale units.
$end

$dumpvars
1aaaaa
0aaaab
b10001 aaaac
b0 aaaad
$end

#10000
0aaaaa

#20000
1aaaaa
b10010 aaaac
b1111111111111111 aaaad

#30000
0aaaaa

#40000
1aaaaa
b10011 aaaac
b100000111100001101 aaaad

#50000
0aaaaa

#60000
1aaaaa
b10100 aaaac
b110010110100101010 aaaad

#70000
0aaaaa

#80000
1aaaaa
b10101 aaaac
b1000101101001010110 aaaad

#90000
0aaaaa

#100000
1aaaaa
b10110 aaaac
b1011001011010010001 aaaad

#110000
0aaaaa

#120000
1aaaaa
b10111 aaaac
b1101110000111011011 aaaad

#130000
0aaaaa

#140000
1aaaaa
b11000 aaaac
b10000011110000110100 aaaad

#150000
0aaaaa

#160000
1aaaaa
b11001 aaaac
b10011010010110011100 aaaad

#170000
0aaaaa

#180000
1aaaaa
b11010 aaaac
b10110001111000010011 aaaad

#190000
0aaaaa

#200000
1aaaaa
b11011 aaaac
b11001010010110011001 aaaad

#210000
0aaaaa

#220000
1aaaaa
b11100 aaaac
b11100011110000101110 aaaad

#230000
0aaaaa

#240000
1aaaaa
b10000000000000000 aaaac
b11111110000111010010 aaaad

#250000
0aaaaa

#260000
1aaaaa
b1111000111101110000111010010 aaaad

#270000
0aaaaa

#280000
1aaaaa
b11110001011011110000111010010 aaaad

#290000
0aaaaa

#300000
1aaaaa
b101101001111001110000111010010 aaaad

#310000
0aaaaa

#320000
1aaaaa
b111100010010111110000111010010 aaaad

#330000
0aaaaa

#340000
1aaaaa
b1001011010110101110000111010010 aaaad

#350000
0aaaaa

#360000
1aaaaa
b1011010011010001110000111010011 aaaad

#370000
0aaaaa

#380000
1aaaaa
b1101001011101101101001011000101 aaaad

#390000
0aaaaa

#400000
1aaaaa
b1111000100001001011010010101000 aaaad

#410000
0aaaaa

#420000
1aaaaa
b10000111100100101000011101111100 aaaad

#430000
0aaaaa

#440000
1aaaaa
b10010110101000000100101101000001 aaaad

#450000
0aaaaa

#460000
1aaaaa
b10100101101011011111111111110111 aaaad

#470000
0aaaaa

#480000
1aaaaa
b10110100101110111010010110011110 aaaad

#490000
0aaaaa

#500000
1aaaaa
b11000011110010010011110000110110 aaaad

#510000
0aaaaa

#520000
1aaaaa
b11010010110101101100001110111111 aaaad

#530000
0aaaaa

#540000
1aaaaa
b11100001111001000011110000111001 aaaad

#550000
0aaaaa

#560000
1aaaaa
b11110000111100011010010110100100 aaaad

#570000
0aaaaa

#580000
1aaaaa
b0 aaaac
b11111111111111110000000000000000 aaaad

#590000
0aaaaa

#600000
1aaaaa
b11110000111100000000000000000000 aaaad

#610000
0aaaaa

#620000
1aaaaa
b11100001111000010000000000000000 aaaad

#630000
0aaaaa

#640000
1aaaaa
b11010010110100100000000000000000 aaaad

#650000
0aaaaa

#660000
1aaaaa
b11000011110000110000000000000000 aaaad

#670000
0aaaaa

#680000
1aaaaa
b10110100101101000000000000000000 aaaad

#690000
0aaaaa

#700000
1aaaaa
b10100101101001010000000000000000 aaaad

#710000
0aaaaa

#720000
1aaaaa
b10010110100101100000000000000000 aaaad

#730000
0aaaaa

#740000
1aaaaa
b10000111100001110000000000000000 aaaad

#750000
0aaaaa

#760000
1aaaaa
b1111000011110000000000000000000 aaaad

#770000
0aaaaa

#780000
1aaaaa
b1101001011010010000000000000000 aaaad

#790000
0aaaaa

#800000
1aaaaa
b1011010010110100000000000000000 aaaad

#810000
0aaaaa

#820000
1aaaaa
b1001011010010110000000000000000 aaaad

#830000
0aaaaa

#840000
1aaaaa
b111100001111000000000000000000 aaaad

#850000
0aaaaa

#860000
1aaaaa
b101101001011010000000000000000 aaaad

#870000
0aaaaa

#880000
1aaaaa
b11110000111100000000000000000 aaaad

#890000
0aaaaa

#900000
1aaaaa
b1111000011110000000000000000 aaaad

#910000
0aaaaa

#920000
1aaaaa
b11111111111111111111111111111111 aaaac
b0 aaaad

#930000
0aaaaa

#940000
1aaaaa
b11111111111111111111000011110001 aaaad

#950000
0aaaaa

#960000
1aaaaa
b11111111111111111110000111100010 aaaad

#970000
0aaaaa

#980000
1aaaaa
b11111111111111111101001011010011 aaaad

#990000
0aaaaa

#1000000
1aaaaa
b11111111111111111100001111000100 aaaad

#1010000
0aaaaa

#1020000
1aaaaa
b11111111111111111011010010110101 aaaad

#1030000
0aaaaa

#1040000
1aaaaa
b11111111111111111010010110100110 aaaad

#1050000
0aaaaa

#1060000
1aaaaa
b11111111111111111001011010010111 aaaad

#1070000
0aaaaa

#1080000
1aaaaa
b11111111111111111000011110001000 aaaad

#1090000
0aaaaa

#1100000
1aaaaa
b11111111111111110111100001111001 aaaad

#1110000
0aaaaa

#1120000
1aaaaa
b11111111111111110110100101101010 aaaad

#1130000
0aaaaa

#1140000
1aaaaa
b11111111111111110101101001011011 aaaad

#1150000
0aaaaa

#1160000
1aaaaa
b11111111111111110100101101001100 aaaad

#1170000
0aaaaa

#1180000
1aaaaa
b11111111111111110011110000111101 aaaad

#1190000
0aaaaa

#1200000
1aaaaa
b11111111111111110010110100101110 aaaad

#1210000
0aaaaa

#1220000
1aaaaa
b11111111111111110001111000011111 aaaad

#1230000
0aaaaa

#1240000
1aaaaa
b11111111111111110000111100010000 aaaad

#1250000
0aaaaa

#1260000
1aaaaa
b0 aaaac
b11111111111111110000000000000001 aaaad

#1270000
0aaaaa

#1280000
1aaaaa
b11111111111111110000111100010000 aaaad

