Assignment 1/origin/simplex.vcd
$date
     Mar 15, 2017       18:12:26
$end

$version
 SystemC 2.3.1-Accellera --- Mar 13 2017 14:07:17
$end

$timescale
     1 ps
$end

$scope module SystemC $end
$var wire    1  aaaaa  clock       $end
$var wire    1  aaaab  timeout       $end
$var wire    1  aaaac  start       $end
$var wire   64  aaaad  packet1.info [63:0]  $end
$var wire   32  aaaae  packet1.seq [31:0]  $end
$var wire   32  aaaaf  packet1.retry [31:0]  $end
$var wire   64  aaaag  packet2.info [63:0]  $end
$var wire   32  aaaah  packet2.seq [31:0]  $end
$var wire   32  aaaai  packet2.retry [31:0]  $end
$var wire   64  aaaaj  packet3.info [63:0]  $end
$var wire   32  aaaak  packet3.seq [31:0]  $end
$var wire   32  aaaal  packet3.retry [31:0]  $end
$var wire   64  aaaam  packet4.info [63:0]  $end
$var wire   32  aaaan  packet4.seq [31:0]  $end
$var wire   32  aaaao  packet4.retry [31:0]  $end
$var wire   64  aaaap  dout [63:0]  $end
$upscope $end
$enddefinitions  $end

$comment
All initial values are dumped below at time 0 sec = 0 timescale units.
$end

$dumpvars
1aaaaa
0aaaab
1aaaac
b1101011100010110100010101100111 aaaad
b1 aaaae
b0 aaaaf
b0 aaaag
b0 aaaah
b0 aaaai
b0 aaaaj
b0 aaaak
b0 aaaal
b1101011100010110100010101100111 aaaam
b1 aaaan
b0 aaaao
b0 aaaap
$end

#10000
0aaaaa

#15000
b1 aaaah
b10 aaaai
b1 aaaak
b10 aaaal
b1101011100010110100010101100111 aaaap

#20000
1aaaaa
b11001010010010101110011111111 aaaad
b10 aaaae
b11001010010010101110011111111 aaaam
b10 aaaan

#30000
0aaaaa
b10 aaaah
b11 aaaai
b10 aaaak
b11 aaaal
b11001010010010101110011111111 aaaap

#40000
1aaaaa
b100011100011100001111100101001 aaaad
b11 aaaae
b100011100011100001111100101001 aaaam
b11 aaaan

#45000
b11 aaaah
b100 aaaai
b11 aaaak
b100 aaaal
b100011100011100001111100101001 aaaap

#50000
0aaaaa

#60000
1aaaaa
b1010000011111101101011110101011 aaaad
b100 aaaae
b1010000011111101101011110101011 aaaam
b100 aaaan

#70000
0aaaaa

#75000
b100 aaaah
b101 aaaai
b100 aaaak
b101 aaaal
b1010000011111101101011110101011 aaaap

#80000
1aaaaa
b1111001111000101010100111100011 aaaad
b101 aaaae
b1111001111000101010100111100011 aaaam
b101 aaaan

#90000
0aaaaa
b101 aaaah
b110 aaaai
b101 aaaak
b110 aaaal
b1111001111000101010100111100011 aaaap

#100000
1aaaaa
b1011011110100000110001011000010 aaaad
b110 aaaae
b1011011110100000110001011000010 aaaam
b110 aaaan

#105000
b110 aaaah
b111 aaaai
b110 aaaak
b111 aaaal
b1011011110100000110001011000010 aaaap

#110000
0aaaaa

#120000
1aaaaa
b10000101100010001100011011 aaaad
b111 aaaae
b10000101100010001100011011 aaaam
b111 aaaan

#130000
0aaaaa

#135000
b111 aaaah
b1000 aaaai
b111 aaaak
b1000 aaaal
b10000101100010001100011011 aaaap

#140000
1aaaaa
b1100110111011110100001110001101 aaaad
b1000 aaaae
b1100110111011110100001110001101 aaaam
b1000 aaaan

#150000
0aaaaa
b1000 aaaah
b1001 aaaai
b1000 aaaak
b1001 aaaal
b1100110111011110100001110001101 aaaap

#160000
1aaaaa
b10000100111001111100100101110 aaaad
b1001 aaaae
b10000100111001111100100101110 aaaam
b1001 aaaan

#165000
b1001 aaaah
b1010 aaaai
b1001 aaaak
b1010 aaaal
b10000100111001111100100101110 aaaap

#170000
0aaaaa

#180000
1aaaaa
b11011111011111101011110011111 aaaad
b1010 aaaae
b11011111011111101011110011111 aaaam
b1010 aaaan

#190000
0aaaaa

#195000
b1010 aaaah
b1011 aaaai
b1010 aaaak
b1011 aaaal
b11011111011111101011110011111 aaaap

#200000
1aaaaa
b1001110011010101111101101100110 aaaad
b1011 aaaae
b1001110011010101111101101100110 aaaam
b1011 aaaan

#210000
0aaaaa
b1011 aaaah
b1100 aaaai
b1011 aaaak
b1100 aaaal
b1001110011010101111101101100110 aaaap

#220000
1aaaaa
b1000011000110111101011110110111 aaaad
b1100 aaaae
b1000011000110111101011110110111 aaaam
b1100 aaaan

#225000
b1100 aaaah
b1101 aaaai
b1100 aaaak
b1101 aaaal
b1000011000110111101011110110111 aaaap

#230000
0aaaaa

#240000
1aaaaa
b100101011100010011000010100011 aaaad
b1101 aaaae
b100101011100010011000010100011 aaaam
b1101 aaaan

#250000
0aaaaa

#255000
b1101 aaaah
b1110 aaaai
b1101 aaaak
b1110 aaaal
b100101011100010011000010100011 aaaap

#260000
1aaaaa
b1100010100011001000100101011101 aaaad
b1110 aaaae
b1100010100011001000100101011101 aaaam
b1110 aaaan

#270000
0aaaaa
b1110 aaaah
b1111 aaaai
b1110 aaaak
b1111 aaaal
b1100010100011001000100101011101 aaaap

#280000
1aaaaa
b100100010000111010100001011000 aaaad
b1111 aaaae
b100100010000111010100001011000 aaaam
b1111 aaaan

#285000
b1111 aaaah
b10000 aaaai
b1111 aaaak
b10000 aaaal
b100100010000111010100001011000 aaaap

#290000
0aaaaa

#300000
1aaaaa
b1110101101000101010100011010100 aaaad
b10000 aaaae
b1110101101000101010100011010100 aaaam
b10000 aaaan

#310000
0aaaaa

#315000
b10000 aaaah
b10001 aaaai
b10000 aaaak
b10001 aaaal
b1110101101000101010100011010100 aaaap

#320000
1aaaaa
b1000011010100111101000011001101 aaaad
b10001 aaaae
b1000011010100111101000011001101 aaaam
b10001 aaaan

#330000
0aaaaa
b10001 aaaah
b10010 aaaai
b10001 aaaak
b10010 aaaal
b1000011010100111101000011001101 aaaap

#340000
1aaaaa
b1010100111001001001111010110100 aaaad
b10010 aaaae
b1010100111001001001111010110100 aaaam
b10010 aaaan

#345000
b10010 aaaah
b10011 aaaai
b10010 aaaak
b10011 aaaal
b1010100111001001001111010110100 aaaap

#350000
0aaaaa

#360000
1aaaaa
b1000001101101100010000001110 aaaad
b10011 aaaae
b1000001101101100010000001110 aaaam
b10011 aaaan

#370000
0aaaaa

#375000
b10011 aaaah
b10100 aaaai
b10011 aaaak
b10100 aaaal
b1000001101101100010000001110 aaaap

#380000
1aaaaa
b1000000100111000011001000001 aaaad
b10100 aaaae
b1000000100111000011001000001 aaaam
b10100 aaaan

#390000
0aaaaa
b10100 aaaah
b10101 aaaai
b10100 aaaak
b10101 aaaal
b1000000100111000011001000001 aaaap

#400000
1aaaaa
b1110011011110111000110111011100 aaaad
b10101 aaaae
b1110011011110111000110111011100 aaaam
b10101 aaaan

#405000
b10101 aaaah
b10110 aaaai
b10101 aaaak
b10110 aaaal
b1110011011110111000110111011100 aaaap

#410000
0aaaaa

#420000
1aaaaa
b1000101000101101101110111101001 aaaad
b10110 aaaae
b1000101000101101101110111101001 aaaam
b10110 aaaan

#430000
0aaaaa

#435000
b10110 aaaah
b10111 aaaai
b10110 aaaak
b10111 aaaal
b1000101000101101101110111101001 aaaap

#440000
1aaaaa
b1000001100110101100001001000001 aaaad
b10111 aaaae
b1000001100110101100001001000001 aaaam
b10111 aaaan

#450000
0aaaaa
b10111 aaaah
b11000 aaaai
b10111 aaaak
b11000 aaaal
b1000001100110101100001001000001 aaaap

#460000
1aaaaa
b101000001110010001101100111 aaaad
b11000 aaaae
b101000001110010001101100111 aaaam
b11000 aaaan

#465000
b11000 aaaah
b11001 aaaai
b11000 aaaak
b11001 aaaal
b101000001110010001101100111 aaaap

#470000
0aaaaa

#480000
1aaaaa
b1110111001001001100011001111110 aaaad
b11001 aaaae
b1110111001001001100011001111110 aaaam
b11001 aaaan

#490000
0aaaaa

#495000
b11001 aaaah
b11010 aaaai
b11001 aaaak
b11010 aaaal
b1110111001001001100011001111110 aaaap

#500000
1aaaaa
b1011110100010000100101011011100 aaaad
b11010 aaaae
b1011110100010000100101011011100 aaaam
b11010 aaaan

#510000
0aaaaa
b11010 aaaah
b11011 aaaai
b11010 aaaak
b11011 aaaal
b1011110100010000100101011011100 aaaap

#520000
1aaaaa
b1011000000010111101011110001111 aaaad
b11011 aaaae
b1011000000010111101011110001111 aaaam
b11011 aaaan

#525000
b11011 aaaah
b11100 aaaai
b11011 aaaak
b11100 aaaal
b1011000000010111101011110001111 aaaap

#530000
0aaaaa

#540000
1aaaaa
b1110000101001100100111000101010 aaaad
b11100 aaaae
b1110000101001100100111000101010 aaaam
b11100 aaaan

#550000
0aaaaa

#555000
b11100 aaaah
b11101 aaaai
b11100 aaaak
b11101 aaaal
b1110000101001100100111000101010 aaaap

#560000
1aaaaa
b11101010011101101010000111011 aaaad
b11101 aaaae
b11101010011101101010000111011 aaaam
b11101 aaaan

#570000
0aaaaa
b11101 aaaah
b11110 aaaai
b11101 aaaak
b11110 aaaal
b11101010011101101010000111011 aaaap

#580000
1aaaaa
b1010111111001001100110010101111 aaaad
b11110 aaaae
b1010111111001001100110010101111 aaaam
b11110 aaaan

#585000
b11110 aaaah
b11111 aaaai
b11110 aaaak
b11111 aaaal
b1010111111001001100110010101111 aaaap

#590000
0aaaaa

#600000
1aaaaa
b1010100001000101000100111101100 aaaad
b11111 aaaae
b1010100001000101000100111101100 aaaam
b11111 aaaan

#610000
0aaaaa

#615000
b11111 aaaah
b100000 aaaai
b11111 aaaak
b100000 aaaal
b1010100001000101000100111101100 aaaap

#620000
1aaaaa
b1110110010001001010010001011100 aaaad
b100000 aaaae
b1110110010001001010010001011100 aaaam
b100000 aaaan

#630000
0aaaaa
b100000 aaaah
b100001 aaaai
b100000 aaaak
b100001 aaaal
b1110110010001001010010001011100 aaaap

#640000
1aaaaa
b1010111100101000111100011111110 aaaad
b100001 aaaae
b1010111100101000111100011111110 aaaam
b100001 aaaan

#645000
b100001 aaaah
b100010 aaaai
b100001 aaaak
b100010 aaaal
b1010111100101000111100011111110 aaaap

#650000
0aaaaa

#660000
1aaaaa
b11011101000000010011011111010 aaaad
b100010 aaaae
b11011101000000010011011111010 aaaam
b100010 aaaan

#670000
0aaaaa

#675000
b100010 aaaah
b100011 aaaai
b100010 aaaak
b100011 aaaal
b11011101000000010011011111010 aaaap

#680000
1aaaaa
b10010111001101000010111111011 aaaad
b100011 aaaae
b10010111001101000010111111011 aaaam
b100011 aaaan

#690000
0aaaaa
b100011 aaaah
b100100 aaaai
b100011 aaaak
b100100 aaaal
b10010111001101000010111111011 aaaap

#700000
1aaaaa
b110111010010100011111111100110 aaaad
b100100 aaaae
b110111010010100011111111100110 aaaam
b100100 aaaan

#705000
b100100 aaaah
b100101 aaaai
b100100 aaaak
b100101 aaaal
b110111010010100011111111100110 aaaap

#710000
0aaaaa

#720000
1aaaaa
b1100100100110111011011101111100 aaaad
b100101 aaaae
b1100100100110111011011101111100 aaaam
b100101 aaaan

#730000
0aaaaa

#735000
b100101 aaaah
b100110 aaaai
b100101 aaaak
b100110 aaaal
b1100100100110111011011101111100 aaaap

#740000
1aaaaa
b11100111100010000111111011000 aaaad
b100110 aaaae
b11100111100010000111111011000 aaaam
b100110 aaaan

#750000
0aaaaa
b100110 aaaah
b100111 aaaai
b100110 aaaak
b100111 aaaal
b11100111100010000111111011000 aaaap

#760000
1aaaaa
b1000111001110011000110010001001 aaaad
b100111 aaaae
b1000111001110011000110010001001 aaaam
b100111 aaaan

#765000
b100111 aaaah
b101000 aaaai
b100111 aaaak
b101000 aaaal
b1000111001110011000110010001001 aaaap

#770000
0aaaaa

#780000
1aaaaa
b1110100000100100010011010111011 aaaad
b101000 aaaae
b1110100000100100010011010111011 aaaam
b101000 aaaan

#790000
0aaaaa

#795000
b101000 aaaah
b101001 aaaai
b101000 aaaak
b101001 aaaal
b1110100000100100010011010111011 aaaap

#800000
1aaaaa
b111111011010101011011000001111 aaaad
b101001 aaaae
b111111011010101011011000001111 aaaam
b101001 aaaan

#810000
0aaaaa
b101001 aaaah
b101010 aaaai
b101001 aaaak
b101010 aaaal
b111111011010101011011000001111 aaaap

#820000
1aaaaa
b1110111101011100011010111101011 aaaad
b101010 aaaae
b1110111101011100011010111101011 aaaam
b101010 aaaan

#825000
b101010 aaaah
b101011 aaaai
b101010 aaaak
b101011 aaaal
b1110111101011100011010111101011 aaaap

#830000
0aaaaa

#840000
1aaaaa
b1011111111110000111111000000101 aaaad
b101011 aaaae
b1011111111110000111111000000101 aaaam
b101011 aaaan

#850000
0aaaaa

#855000
b101011 aaaah
b101100 aaaai
b101011 aaaak
b101100 aaaal
b1011111111110000111111000000101 aaaap

#860000
1aaaaa
b11101101110101011111100000000 aaaad
b101100 aaaae
b11101101110101011111100000000 aaaam
b101100 aaaan

#870000
0aaaaa
b101100 aaaah
b101101 aaaai
b101100 aaaak
b101101 aaaal
b11101101110101011111100000000 aaaap

#880000
1aaaaa
b10011100000011000001000111010 aaaad
b101101 aaaae
b10011100000011000001000111010 aaaam
b101101 aaaan

#885000
b101101 aaaah
b101110 aaaai
b101101 aaaak
b101110 aaaal
b10011100000011000001000111010 aaaap

#890000
0aaaaa

#900000
1aaaaa
b1100101100100000111000000001011 aaaad
b101110 aaaae
b1100101100100000111000000001011 aaaam
b101110 aaaan

#910000
0aaaaa

#915000
b101110 aaaah
b101111 aaaai
b101110 aaaak
b101111 aaaal
b1100101100100000111000000001011 aaaap

#920000
1aaaaa
b1001100010100011000101001000 aaaad
b101111 aaaae
b1001100010100011000101001000 aaaam
b101111 aaaan

#930000
0aaaaa
b101111 aaaah
b110000 aaaai
b101111 aaaak
b110000 aaaal
b1001100010100011000101001000 aaaap

#940000
1aaaaa
b1000010110000101001011010111101 aaaad
b110000 aaaae
b1000010110000101001011010111101 aaaam
b110000 aaaan

#945000
b110000 aaaah
b110001 aaaai
b110000 aaaak
b110001 aaaal
b1000010110000101001011010111101 aaaap

#950000
0aaaaa

#960000
1aaaaa
b1100110000111100011111100011110 aaaad
b110001 aaaae
b1100110000111100011111100011110 aaaam
b110001 aaaan

#970000
0aaaaa

#975000
b110001 aaaah
b110010 aaaai
b110001 aaaak
b110010 aaaal
b1100110000111100011111100011110 aaaap

#980000
1aaaaa
b1111011110100111110111001111011 aaaad
b110010 aaaae
b1111011110100111110111001111011 aaaam
b110010 aaaan

#990000
0aaaaa
b110010 aaaah
b110011 aaaai
b110010 aaaak
b110011 aaaal
b1111011110100111110111001111011 aaaap

#1000000
1aaaaa
b1011111101110010101100010100 aaaad
b110011 aaaae
b1011111101110010101100010100 aaaam
b110011 aaaan

#1005000
b110011 aaaah
b110100 aaaai
b110011 aaaak
b110100 aaaal
b1011111101110010101100010100 aaaap

#1010000
0aaaaa

#1020000
1aaaaa
b1010000000111000001011000101 aaaad
b110100 aaaae
b1010000000111000001011000101 aaaam
b110100 aaaan

#1030000
0aaaaa

#1035000
b110100 aaaah
b110101 aaaai
b110100 aaaak
b110101 aaaal
b1010000000111000001011000101 aaaap

#1040000
1aaaaa
b111011000011111101001101111001 aaaad
b110101 aaaae
b111011000011111101001101111001 aaaam
b110101 aaaan

#1050000
0aaaaa
b110101 aaaah
b110110 aaaai
b110101 aaaak
b110110 aaaal
b111011000011111101001101111001 aaaap

#1060000
1aaaaa
b1100000101101101101111101110000 aaaad
b110110 aaaae
b1100000101101101101111101110000 aaaam
b110110 aaaan

#1065000
b110110 aaaah
b110111 aaaai
b110110 aaaak
b110111 aaaal
b1100000101101101101111101110000 aaaap

#1070000
0aaaaa

#1080000
1aaaaa
b1111111111111111100101000010001 aaaad
b110111 aaaae
b1111111111111111100101000010001 aaaam
b110111 aaaan

#1090000
0aaaaa

#1095000
b110111 aaaah
b111000 aaaai
b110111 aaaak
b111000 aaaal
b1111111111111111100101000010001 aaaap

#1100000
1aaaaa
b10000000011110101100111011100 aaaad
b111000 aaaae
b10000000011110101100111011100 aaaam
b111000 aaaan

#1110000
0aaaaa
b111000 aaaah
b111001 aaaai
b111000 aaaak
b111001 aaaal
b10000000011110101100111011100 aaaap

#1120000
1aaaaa
b1101111011011011101100110101100 aaaad
b111001 aaaae
b1101111011011011101100110101100 aaaam
b111001 aaaan

#1125000
b111001 aaaah
b111010 aaaai
b111001 aaaak
b111010 aaaal
b1101111011011011101100110101100 aaaap

#1130000
0aaaaa

#1140000
1aaaaa
b1110110001001110010000100010000 aaaad
b111010 aaaae
b1110110001001110010000100010000 aaaam
b111010 aaaan

#1150000
0aaaaa

#1155000
b111010 aaaah
b111011 aaaai
b111010 aaaak
b111011 aaaal
b1110110001001110010000100010000 aaaap

#1160000
1aaaaa
b10100111000010111111000110011 aaaad
b111011 aaaae
b10100111000010111111000110011 aaaam
b111011 aaaan

#1170000
0aaaaa
b111011 aaaah
b111100 aaaai
b111011 aaaak
b111100 aaaal
b10100111000010111111000110011 aaaap

#1180000
1aaaaa
b1101000111010111100010101010000 aaaad
b111100 aaaae
b1101000111010111100010101010000 aaaam
b111100 aaaan

#1185000
b111100 aaaah
b111101 aaaai
b111100 aaaak
b111101 aaaal
b1101000111010111100010101010000 aaaap

#1190000
0aaaaa

#1200000
1aaaaa
b1001010001010101100001100010101 aaaad
b111101 aaaae
b1001010001010101100001100010101 aaaam
b111101 aaaan

#1210000
0aaaaa

#1215000
b111101 aaaah
b111110 aaaai
b111101 aaaak
b111110 aaaal
b1001010001010101100001100010101 aaaap

#1220000
1aaaaa
b1100110000010000000101101111 aaaad
b111110 aaaae
b1100110000010000000101101111 aaaam
b111110 aaaan

#1230000
0aaaaa
b111110 aaaah
b111111 aaaai
b111110 aaaak
b111111 aaaal
b1100110000010000000101101111 aaaap

#1240000
1aaaaa
b100110111100110010010010111010 aaaad
b111111 aaaae
b100110111100110010010010111010 aaaam
b111111 aaaan

#1245000
b111111 aaaah
b1000000 aaaai
b111111 aaaak
b1000000 aaaal
b100110111100110010010010111010 aaaap

#1250000
0aaaaa

#1260000
1aaaaa
b1110000010101011010010111110101 aaaad
b1000000 aaaae
b1110000010101011010010111110101 aaaam
b1000000 aaaan

#1270000
0aaaaa

#1275000
b1000000 aaaah
b1000001 aaaai
b1000000 aaaak
b1000001 aaaal
b1110000010101011010010111110101 aaaap

#1280000
1aaaaa
b100100010001010110000011010 aaaad
b1000001 aaaae
b100100010001010110000011010 aaaam
b1000001 aaaan

#1290000
0aaaaa
b1000001 aaaah
b1000010 aaaai
b1000001 aaaak
b1000010 aaaal
b100100010001010110000011010 aaaap

#1300000
1aaaaa
b1110110011100101011110100100011 aaaad
b1000010 aaaae
b1110110011100101011110100100011 aaaam
b1000010 aaaan

#1305000
b1000010 aaaah
b1000011 aaaai
b1000010 aaaak
b1000011 aaaal
b1110110011100101011110100100011 aaaap

#1310000
0aaaaa

#1320000
1aaaaa
b1111101010111100001100011111000 aaaad
b1000011 aaaae
b1111101010111100001100011111000 aaaam
b1000011 aaaan

#1330000
0aaaaa

#1335000
b1000011 aaaah
b1000100 aaaai
b1000011 aaaak
b1000100 aaaal
b1111101010111100001100011111000 aaaap

#1340000
1aaaaa
b1111101111001100111011100010011 aaaad
b1000100 aaaae
b1111101111001100111011100010011 aaaam
b1000100 aaaan

#1350000
0aaaaa
b1000100 aaaah
b1000101 aaaai
b1000100 aaaak
b1000101 aaaal
b1111101111001100111011100010011 aaaap

#1360000
1aaaaa
b10100111111001110011101001110 aaaad
b1000101 aaaae
b10100111111001110011101001110 aaaam
b1000101 aaaan

#1365000
b1000101 aaaah
b1000110 aaaai
b1000101 aaaak
b1000110 aaaal
b10100111111001110011101001110 aaaap

#1370000
0aaaaa

#1380000
1aaaaa
b1001110110101111011000110010 aaaad
b1000110 aaaae
b1001110110101111011000110010 aaaam
b1000110 aaaan

#1390000
0aaaaa

#1395000
b1000110 aaaah
b1000111 aaaai
b1000110 aaaak
b1000111 aaaal
b1001110110101111011000110010 aaaap

#1400000
1aaaaa
b1010000100100101100101001111001 aaaad
b1000111 aaaae
b1010000100100101100101001111001 aaaam
b1000111 aaaan

#1410000
0aaaaa
b1000111 aaaah
b1001000 aaaai
b1000111 aaaak
b1001000 aaaal
b1010000100100101100101001111001 aaaap

#1420000
1aaaaa
b101000100011110001101000110100 aaaad
b1001000 aaaae
b101000100011110001101000110100 aaaam
b1001000 aaaan

#1425000
b1001000 aaaah
b1001001 aaaai
b1001000 aaaak
b1001001 aaaal
b101000100011110001101000110100 aaaap

#1430000
0aaaaa

#1440000
1aaaaa
b1001011111100001101101001110 aaaad
b1001001 aaaae
b1001011111100001101101001110 aaaam
b1001001 aaaan

#1450000
0aaaaa

#1455000
b1001001 aaaah
b1001010 aaaai
b1001001 aaaak
b1001010 aaaal
b1001011111100001101101001110 aaaap

#1460000
1aaaaa
b1010011010110000100101111001011 aaaad
b1001010 aaaae
b1010011010110000100101111001011 aaaam
b1001010 aaaan

#1470000
0aaaaa
b1001010 aaaah
b1001011 aaaai
b1001010 aaaak
b1001011 aaaal
b1010011010110000100101111001011 aaaap

#1480000
1aaaaa
b100011110110000110101010101100 aaaad
b1001011 aaaae
b100011110110000110101010101100 aaaam
b1001011 aaaan

#1485000
b1001011 aaaah
b1001100 aaaai
b1001011 aaaak
b1001100 aaaal
b100011110110000110101010101100 aaaap

#1490000
0aaaaa

#1500000
1aaaaa
b1110011111111111101000101011 aaaad
b1001100 aaaae
b1110011111111111101000101011 aaaam
b1001100 aaaan

#1510000
0aaaaa

#1515000
b1001100 aaaah
b1001101 aaaai
b1001100 aaaak
b1001101 aaaal
b1110011111111111101000101011 aaaap

#1520000
1aaaaa
b1111000110111110110101001010101 aaaad
b1001101 aaaae
b1111000110111110110101001010101 aaaam
b1001101 aaaan

#1530000
0aaaaa
b1001101 aaaah
b1001110 aaaai
b1001101 aaaak
b1001110 aaaal
b1111000110111110110101001010101 aaaap

#1540000
1aaaaa
b1101100100000001110110001110000 aaaad
b1001110 aaaae
b1101100100000001110110001110000 aaaam
b1001110 aaaan

#1545000
b1001110 aaaah
b1001111 aaaai
b1001110 aaaak
b1001111 aaaal
b1101100100000001110110001110000 aaaap

#1550000
0aaaaa

#1560000
1aaaaa
b101100001001110001011100111011 aaaad
b1001111 aaaae
b101100001001110001011100111011 aaaam
b1001111 aaaan

#1570000
0aaaaa

#1575000
b1001111 aaaah
b1010000 aaaai
b1001111 aaaak
b1010000 aaaal
b101100001001110001011100111011 aaaap

#1580000
1aaaaa
b11101111100000010100111010011 aaaad
b1010000 aaaae
b11101111100000010100111010011 aaaam
b1010000 aaaan

#1590000
0aaaaa
b1010000 aaaah
b1010001 aaaai
b1010000 aaaak
b1010001 aaaal
b11101111100000010100111010011 aaaap

#1600000
1aaaaa
b111101101100000001001010110011 aaaad
b1010001 aaaae
b111101101100000001001010110011 aaaam
b1010001 aaaan

#1605000
b1010001 aaaah
b1010010 aaaai
b1010001 aaaak
b1010010 aaaal
b111101101100000001001010110011 aaaap

#1610000
0aaaaa

#1620000
1aaaaa
b10111010111011111110011110000 aaaad
b1010010 aaaae
b10111010111011111110011110000 aaaam
b1010010 aaaan

#1630000
0aaaaa

#1635000
b1010010 aaaah
b1010011 aaaai
b1010010 aaaak
b1010011 aaaal
b10111010111011111110011110000 aaaap

#1640000
1aaaaa
b110100111111010110101101001111 aaaad
b1010011 aaaae
b110100111111010110101101001111 aaaam
b1010011 aaaan

#1650000
0aaaaa
b1010011 aaaah
b1010100 aaaai
b1010011 aaaak
b1010100 aaaal
b110100111111010110101101001111 aaaap

#1660000
1aaaaa
b1010001100111100011000101001001 aaaad
b1010100 aaaae
b1010001100111100011000101001001 aaaam
b1010100 aaaan

#1665000
b1010100 aaaah
b1010101 aaaai
b1010100 aaaak
b1010101 aaaal
b1010001100111100011000101001001 aaaap

#1670000
0aaaaa

#1680000
1aaaaa
b1001101111101110010111001001110 aaaad
b1010101 aaaae
b1001101111101110010111001001110 aaaam
b1010101 aaaan

#1690000
0aaaaa

#1695000
b1010101 aaaah
b1010110 aaaai
b1010101 aaaak
b1010110 aaaal
b1001101111101110010111001001110 aaaap

#1700000
1aaaaa
b101010000010000010110001110000 aaaad
b1010110 aaaae
b101010000010000010110001110000 aaaam
b1010110 aaaan

#1710000
0aaaaa
b1010110 aaaah
b1010111 aaaai
b1010110 aaaak
b1010111 aaaal
b101010000010000010110001110000 aaaap

#1720000
1aaaaa
b1110101111000001000010110001010 aaaad
b1010111 aaaae
b1110101111000001000010110001010 aaaam
b1010111 aaaan

#1725000
b1010111 aaaah
b1011000 aaaai
b1010111 aaaak
b1011000 aaaal
b1110101111000001000010110001010 aaaap

#1730000
0aaaaa

#1740000
1aaaaa
b100000111011100001001101001000 aaaad
b1011000 aaaae
b100000111011100001001101001000 aaaam
b1011000 aaaan

#1750000
0aaaaa

#1755000
b1011000 aaaah
b1011001 aaaai
b1011000 aaaak
b1011001 aaaal
b100000111011100001001101001000 aaaap

#1760000
1aaaaa
b100001010101111111011010111100 aaaad
b1011001 aaaae
b100001010101111111011010111100 aaaam
b1011001 aaaan

#1770000
0aaaaa
b1011001 aaaah
b1011010 aaaai
b1011001 aaaak
b1011010 aaaal
b100001010101111111011010111100 aaaap

#1780000
1aaaaa
b1011111111111010111000011000 aaaad
b1011010 aaaae
b1011111111111010111000011000 aaaam
b1011010 aaaan

#1785000
b1011010 aaaah
b1011011 aaaai
b1011010 aaaak
b1011011 aaaal
b1011111111111010111000011000 aaaap

#1790000
0aaaaa

#1800000
1aaaaa
b1001001110100001111111010101100 aaaad
b1011011 aaaae
b1001001110100001111111010101100 aaaam
b1011011 aaaan

#1810000
0aaaaa

#1815000
b1011011 aaaah
b1011100 aaaai
b1011011 aaaak
b1011100 aaaal
b1001001110100001111111010101100 aaaap

#1820000
1aaaaa
b100100111101101010101110001110 aaaad
b1011100 aaaae
b100100111101101010101110001110 aaaam
b1011100 aaaan

#1830000
0aaaaa
b1011100 aaaah
b1011101 aaaai
b1011100 aaaak
b1011101 aaaal
b100100111101101010101110001110 aaaap

#1840000
1aaaaa
b101010001100011011011000101101 aaaad
b1011101 aaaae
b101010001100011011011000101101 aaaam
b1011101 aaaan

#1845000
b1011101 aaaah
b1011110 aaaai
b1011101 aaaak
b1011110 aaaal
b101010001100011011011000101101 aaaap

#1850000
0aaaaa

#1860000
1aaaaa
b11101010100001101000010 aaaad
b1011110 aaaae
b11101010100001101000010 aaaam
b1011110 aaaan

#1870000
0aaaaa

#1875000
b1011110 aaaah
b1011111 aaaai
b1011110 aaaak
b1011111 aaaal
b11101010100001101000010 aaaap

#1880000
1aaaaa
b11000000101101111100011000100 aaaad
b1011111 aaaae
b11000000101101111100011000100 aaaam
b1011111 aaaan

#1890000
0aaaaa
b1011111 aaaah
b1100000 aaaai
b1011111 aaaak
b1100000 aaaal
b11000000101101111100011000100 aaaap

#1900000
1aaaaa
b1110101100111111000001011001101 aaaad
b1100000 aaaae
b1110101100111111000001011001101 aaaam
b1100000 aaaan

#1905000
b1100000 aaaah
b1100001 aaaai
b1100000 aaaak
b1100001 aaaal
b1110101100111111000001011001101 aaaap

#1910000
0aaaaa

#1920000
1aaaaa
b1111100000011001111001111111 aaaad
b1100001 aaaae
b1111100000011001111001111111 aaaam
b1100001 aaaan

#1930000
0aaaaa

#1935000
b1100001 aaaah
b1100010 aaaai
b1100001 aaaak
b1100010 aaaal
b1111100000011001111001111111 aaaap

#1940000
1aaaaa
b1100011000110110110010011010100 aaaad
b1100010 aaaae
b1100011000110110110010011010100 aaaam
b1100010 aaaan

#1950000
0aaaaa
b1100010 aaaah
b1100011 aaaai
b1100010 aaaak
b1100011 aaaal
b1100011000110110110010011010100 aaaap

#1960000
1aaaaa
b1101110010100110100110011011110 aaaad
b1100011 aaaae
b1101110010100110100110011011110 aaaam
b1100011 aaaan

#1965000
b1100011 aaaah
b1100100 aaaai
b1100011 aaaak
b1100100 aaaal
b1101110010100110100110011011110 aaaap

#1970000
0aaaaa

#1980000
1aaaaa
b1000110001001100011110111101100 aaaad
b1100100 aaaae
b1000110001001100011110111101100 aaaam
b1100100 aaaan

#1990000
0aaaaa

#1995000
b1100100 aaaah
b1100101 aaaai
b1100100 aaaak
b1100101 aaaal
b1000110001001100011110111101100 aaaap

#2000000
1aaaaa
b1110100011011110010111000110000 aaaad
b1100101 aaaae
b1110100011011110010111000110000 aaaam
b1100101 aaaan

#2010000
0aaaaa
b1100101 aaaah
b1100110 aaaai
b1100101 aaaak
b1100110 aaaal
b1110100011011110010111000110000 aaaap

#2020000
1aaaaa
b1001001110000001110100000100011 aaaad
b1100110 aaaae
b1001001110000001110100000100011 aaaam
b1100110 aaaan

#2025000
b1100110 aaaah
b1100111 aaaai
b1100110 aaaak
b1100111 aaaal
b1001001110000001110100000100011 aaaap

#2030000
0aaaaa

#2040000
1aaaaa
b1101110101010101000010111111011 aaaad
b1100111 aaaae
b1101110101010101000010111111011 aaaam
b1100111 aaaan

#2050000
0aaaaa

#2055000
b1100111 aaaah
b1101000 aaaai
b1100111 aaaak
b1101000 aaaal
b1101110101010101000010111111011 aaaap

#2060000
1aaaaa
b1101100101010100010001100000100 aaaad
b1101000 aaaae
b1101100101010100010001100000100 aaaam
b1101000 aaaan

#2070000
0aaaaa
b1101000 aaaah
b1101001 aaaai
b1101000 aaaak
b1101001 aaaal
b1101100101010100010001100000100 aaaap

#2080000
1aaaaa
b10111000110000000101100001011 aaaad
b1101001 aaaae
b10111000110000000101100001011 aaaam
b1101001 aaaan

#2085000
b1101001 aaaah
b1101010 aaaai
b1101001 aaaak
b1101010 aaaal
b10111000110000000101100001011 aaaap

#2090000
0aaaaa

#2100000
1aaaaa
b10001110011001010100010111010 aaaad
b1101010 aaaae
b10001110011001010100010111010 aaaam
b1101010 aaaan

#2110000
0aaaaa

#2115000
b1101010 aaaah
b1101011 aaaai
b1101010 aaaak
b1101011 aaaal
b10001110011001010100010111010 aaaap

#2120000
1aaaaa
b1101011010001111111011000111110 aaaad
b1101011 aaaae
b1101011010001111111011000111110 aaaam
b1101011 aaaan

